^D:\알고리즘공부\C++\PROGRAMMERS_C++\PROGRAMMERS_ALGORITHM\주식가격\MAP.CPP
D:\알고리즘공부\C++\PROGRAMMERS_C++\PROGRAMMERS_ALGORITHM\주식가격\DEBUG\VC142.PDB
D:\알고리즘공부\C++\PROGRAMMERS_C++\PROGRAMMERS_ALGORITHM\주식가격\DEBUG\VC142.IDB
D:\알고리즘공부\C++\PROGRAMMERS_C++\PROGRAMMERS_ALGORITHM\주식가격\DEBUG\MAP.OBJ
