^D:\알고리즘공부\C++\PROGRAMMERS_C++\PROGRAMMERS_ALGORITHM\프렌즈4블록\MAIN.CPP
D:\알고리즘공부\C++\PROGRAMMERS_C++\PROGRAMMERS_ALGORITHM\프렌즈4블록\DEBUG\VC142.PDB
D:\알고리즘공부\C++\PROGRAMMERS_C++\PROGRAMMERS_ALGORITHM\프렌즈4블록\DEBUG\VC142.IDB
D:\알고리즘공부\C++\PROGRAMMERS_C++\PROGRAMMERS_ALGORITHM\프렌즈4블록\DEBUG\MAIN.OBJ
