^D:\PROJECT\PROGRAMMERS\PROGRAMMERS_ALGORITHM\음양더하기\DEBUG\MAIN.OBJ
D:\PROJECT\PROGRAMMERS\PROGRAMMERS_ALGORITHM\DEBUG\음양더하기.EXE
D:\PROJECT\PROGRAMMERS\PROGRAMMERS_ALGORITHM\DEBUG\음양더하기.ILK
D:\PROJECT\PROGRAMMERS\PROGRAMMERS_ALGORITHM\DEBUG\음양더하기.PDB
