^D:\PROJECT\PROGRAMMERS\PROGRAMMERS_ALGORITHM\모의고사\MAIN.CPP
D:\PROJECT\PROGRAMMERS\PROGRAMMERS_ALGORITHM\모의고사\DEBUG\VC142.PDB
D:\PROJECT\PROGRAMMERS\PROGRAMMERS_ALGORITHM\모의고사\DEBUG\VC142.IDB
D:\PROJECT\PROGRAMMERS\PROGRAMMERS_ALGORITHM\모의고사\DEBUG\MAIN.OBJ
