^D:\PROJECT\PROGRAMMERS\PROGRAMMERS_ALGORITHM\모의고사\DEBUG\MAIN.OBJ
D:\PROJECT\PROGRAMMERS\PROGRAMMERS_ALGORITHM\DEBUG\모의고사.EXE
D:\PROJECT\PROGRAMMERS\PROGRAMMERS_ALGORITHM\DEBUG\모의고사.ILK
D:\PROJECT\PROGRAMMERS\PROGRAMMERS_ALGORITHM\DEBUG\모의고사.PDB
