^D:\알고리즘공부\C++\PROGRAMMERS_C++\PROGRAMMERS_ALGORITHM\오픈채팅방\MAIN.CPP
D:\알고리즘공부\C++\PROGRAMMERS_C++\PROGRAMMERS_ALGORITHM\오픈채팅방\DEBUG\VC142.PDB
D:\알고리즘공부\C++\PROGRAMMERS_C++\PROGRAMMERS_ALGORITHM\오픈채팅방\DEBUG\VC142.IDB
D:\알고리즘공부\C++\PROGRAMMERS_C++\PROGRAMMERS_ALGORITHM\오픈채팅방\DEBUG\MAIN.OBJ
