^D:\PROJECT\PROGRAMMERS\PROGRAMMERS_ALGORITHM\행렬의덧셈\MAIN.CPP
D:\PROJECT\PROGRAMMERS\PROGRAMMERS_ALGORITHM\행렬의덧셈\DEBUG\VC142.PDB
D:\PROJECT\PROGRAMMERS\PROGRAMMERS_ALGORITHM\행렬의덧셈\DEBUG\VC142.IDB
D:\PROJECT\PROGRAMMERS\PROGRAMMERS_ALGORITHM\행렬의덧셈\DEBUG\MAIN.OBJ
