^D:\알고리즘공부\C++\PROGRAMMERS_C++\PROGRAMMERS_ALGORITHM\최댓값과최솟값\MAIN.CPP
D:\알고리즘공부\C++\PROGRAMMERS_C++\PROGRAMMERS_ALGORITHM\최댓값과최솟값\DEBUG\VC142.PDB
D:\알고리즘공부\C++\PROGRAMMERS_C++\PROGRAMMERS_ALGORITHM\최댓값과최솟값\DEBUG\VC142.IDB
D:\알고리즘공부\C++\PROGRAMMERS_C++\PROGRAMMERS_ALGORITHM\최댓값과최솟값\DEBUG\MAIN.OBJ
