^D:\알고리즘공부\C++\PROGRAMMERS_C++\PROGRAMMERS_ALGORITHM\JADENCASE만들기\DEBUG\MAIN.OBJ
D:\알고리즘공부\C++\PROGRAMMERS_C++\PROGRAMMERS_ALGORITHM\DEBUG\JADENCASE만들기.ILK
D:\알고리즘공부\C++\PROGRAMMERS_C++\PROGRAMMERS_ALGORITHM\DEBUG\JADENCASE만들기.EXE
D:\알고리즘공부\C++\PROGRAMMERS_C++\PROGRAMMERS_ALGORITHM\DEBUG\JADENCASE만들기.PDB
