^D:\알고리즘공부\C++\PROGRAMMERS_C++\PROGRAMMERS_ALGORITHM\최대공약수와최소공배수\DEBUG\MAIN.OBJ
D:\알고리즘공부\C++\PROGRAMMERS_C++\PROGRAMMERS_ALGORITHM\DEBUG\최대공약수와최소공배수.ILK
D:\알고리즘공부\C++\PROGRAMMERS_C++\PROGRAMMERS_ALGORITHM\DEBUG\최대공약수와최소공배수.EXE
D:\알고리즘공부\C++\PROGRAMMERS_C++\PROGRAMMERS_ALGORITHM\DEBUG\최대공약수와최소공배수.PDB
